For Loop Vs lapply
…
vacancy <- vacancy2 %>% 
  select(
    id, matches("job"), posted_at, matches("categories"),
    description, matches("company"), matches("employ"),
    matches("is_"), matches("location"), matches("country"), 
    matches("salary"), matches("selling")
  ) %>% 
  select(-job_title_slug)
vacancy

Hasilnya kurang lebih seperti ini dalam format data.frame kelas tibble:

# A tibble: 30 × 23
   id      job_title job_url posted_at categories_code categories_name description
   <chr>   <chr>     <chr>   <chr>     <chr>           <chr>           <chr>      
 1 3641190 SYSTEM A… https:… 2021-09-… 508, 191        Komputer/Tekno… Design new…
 2 3643310 IT Progr… https:… 2021-09-… 508, 191        Komputer/Tekno… RESPONSIBI…
 3 3644140 Data Ana… https:… 2021-09-… 512, 103        Sains, Aktuari… Requiremen…
 4 3643734 Data Ana… https:… 2021-09-… 503, 203        Penjualan / Pe… Requiremen…
 5 3644293 Sales Da… https:… 2021-09-… 508, 193        Komputer/Tekno… Tanggung J…
 6 3644446 Sales Da… https:… 2021-09-… 512, 103        Sains, Aktuari… Responsibi…
 7 3644353 Digital … https:… 2021-09-… 503, 203        Penjualan / Pe… Job Descri…
 8 3632503 Data Sci… https:… 2021-09-… 508, 191        Komputer/Tekno… You will b…
 9 3644514 Data Sci… https:… 2021-09-… 508, 191        Komputer/Tekno… Requiremen…
10 3642934 Speciali… https:… 2021-09-… 508, 193        Komputer/Tekno… Responsibi…
# … with 20 more rows, and 16 more variables: company_meta_id <chr>,
#   company_meta_is_private <chr>, company_meta_name <chr>,
#   employment_types_name <chr>, is_classified <chr>, is_standout <chr>,
#   locations_code <chr>, locations_name <chr>, source_country_code <chr>,
#   salary_range_period <chr>, salary_range_currency <chr>,
#   salary_range_max <chr>, salary_range_min <chr>, selling_points1 <chr>,
#   selling_points2 <chr>, selling_points3 <chr>
…
